{
    "loading": "Loading...",
    "askLike": "Gefällt dir {TITLE}?",
    "comingsoon": "In Kürze verfügbar",
    "restore": "Einkäufe wiederherstellen",
    "restored": "Ihr Kauf wurde wiederhergestellt!",
    "noAd": "Entschuldigung, es sind im Moment keine Werbungen verfügbar.",
    "error": "Oh nein, da ist etwas schief gelaufen!",
    "errorstore": "Fehler im Store, versuche es später noch einmal.",
    "purchased": "Danke!",
    "thanks": "Danke!",
    "touchToStart": "Berühren, um zu starten",
    "exit": "Willst du wirklich das Spiel beenden?",
    "facebook": "Like uns",
    "twitter": "Folgen Sie uns",
    "instagram": "Folgt uns auf Instagram",
    "weibo": "",
    "saveToCloud": "Speicherstand in der Cloud sichern?",
    "loadFromCloud": "Speicherstand aus der Cloud laden?",
    "cloudSaveError": "Fehler beim Speichern in der Cloud. Versuch es später nochmal.",
    "cloudNoSaveFile": "Kein Speicherstand gefunden.",
    "cloudSaved": "Speicherstand in der Cloud gesichert!",
    "cloudLoaded": "Speicherstand aus der Cloud geladen.",
    "cloudNoLogin": "Anmeldung bei {SERVICE} nicht möglich.",
    "highscoreString": "Höchstpunktzahl",
    "muteSound": "Sound abstellen",
    "muteMusic": "Musik abstellen",
    "haptics": "Game-Haptik",
    "cloud": "Cloud speichern",
    "free": "Gratis",
    "removeAds": "Keine Werbeclips",
    "stickers": "iMessage-Sticker",
    "credits": "Credits",
    "score": "Punktestand: {NUMBER}",
    "best": "Bestwert: {NUMBER}",
    "highscore": "Neuer Highscore!",
    "high_score": "Höchstpunktzahl",
    "share": "Teilen",
    "moreGames": "Mehr Spiele"
}