{
    "loading": "Caricamento in corso...",
    "askLike": "Ti piace {TITLE}?",
    "comingsoon": "Prossimamente",
    "restored": "Grazie!",
    "restore": "Ripristina acquisti",
    "noAd": "Siamo spiacenti, non vi è alcun annuncio disponibile in questo momento.",
    "error": "Oh no, qualcosa è andato storto!",
    "errorstore": "Errore nel negozio, prova più tardi.",
    "purchased": "Grazie!",
    "thanks": "Grazie!",
    "touchToStart": "Tocca per iniziare",
    "exit": "Vuoi davvero uscire?",
    "facebook": "Metti mi piace",
    "twitter": "Seguici",
    "instagram": "Seguici su Instagram",
    "weibo": "",
    "saveToCloud": "Vuoi eseguire il backup su cloud?",
    "loadFromCloud": "Vuoi caricare il salvataggio da cloud?",
    "cloudSaveError": "Si è verificato un errore durante il salvataggio su cloud. Riprova più tardi.",
    "cloudNoSaveFile": "Nessun salvataggio trovato.",
    "cloudSaved": "Salvataggio trasferito su cloud!",
    "cloudLoaded": "Salvataggio caricato da cloud!",
    "cloudNoLogin": "Impossibile eseguire il login su {SERVICE}.",
    "highscoreString": "Punteggio più alto",
    "muteSound": "Niente suono",
    "muteMusic": "Niente musica",
    "haptics": "Haptic",
    "cloud": "Cloud backup",
    "free": "Gratis",
    "removeAds": "No pubblicità",
    "stickers": "Adesivi iMessage",
    "credits": "Crediti",
    "score": "Punteggio: {NUMBER}",
    "best": "Migliore: {NUMBER}",
    "highscore": "Nuovo punteggio migliore!",
    "high_score": "Punteggio più alto",
    "share": "Condividi",
    "moreGames": "Altri giochi"
}