{
    "loading": "読み込み中...",
    "askLike": "{TITLE}お気に入りいただけましたか？",
    "comingsoon": "近日追加予定",
    "restore": "購入アイテムを復元",
    "restored": "ありがとう",
    "noAd": "申し訳ございません。現在広告はございません。",
    "error": "ああ、何かうまくいかなかった！",
    "errorstore": "ストアエラーは、後でもう一度ためしてください。",
    "purchased": "ありがとう！",
    "thanks": "ありがとう！",
    "touchToStart": "タッチして開始",
    "exit": "終了してよろしいですか？",
    "facebook": "私たちに「いいね!」する",
    "twitter": "私たちをフォロー",
    "instagram": "Instagramでフォローしてください",
    "weibo": "",
    "saveToCloud": "セーブファイルをクラウドにバックアップしますか？",
    "loadFromCloud": "クラウドからセーブファイルをロードしますか？",
    "cloudSaveError": "クラウドにセーブ中にエラーが発生しました。後ほどもう一度お試しください。",
    "cloudNoSaveFile": "セーブファイルが見つかりませんでした。",
    "cloudSaved": "セーブファイルをクラウドにバックアップしました！",
    "cloudLoaded": "セーブファイルをクラウドからロードしました！",
    "cloudNoLogin": "{SERVICE}にログインできませんでした。",
    "highscoreString": "高得点",
    "muteSound": "音を消す",
    "muteMusic": "音楽を消す",
    "haptics": "ハプティクス",
    "cloud": "クラウド",
    "free": "無料",
    "removeAds": "広告を消す",
    "stickers": "iMessageステッカー",
    "credits": "クレジット",
    "score": "スコア: {NUMBER}",
    "best": "ベスト: {NUMBER}",
    "highscore": "新記録！",
    "high_score": "高得点",
    "share": "シェア",
    "moreGames": "他のゲーム"
}